…
    ## `summarise()` has grouped output by 'year_value'. You can override using the `.groups` argument.

``` r
year_feature
```

    ## # A tibble: 147 × 4
    ## # Groups:   year_value [21]
    ##    year_value features                 n percentage
    ##         <dbl> <fct>                <dbl>      <dbl>
    ##  1       2000 animals                  4     0.182 
    ##  2       2000 celebrity                0     0     
    ##  3       2000 danger                   4     0.182 
    ##  4       2000 funny                    8     0.364 
    ##  5       2000 patriotic                0     0     
    ##  6       2000 show_product_quickly     5     0.227 
    ##  7       2000 use_sex                  1     0.0455
    ##  8       2001 animals                  3     0.0882
    ##  9       2001 celebrity                6     0.176 
    ## 10       2001 danger                   4     0.118 
    ## # … with 137 more rows
…
