…
    ## `summarise()` has grouped output by 'year_value'. You can override using the `.groups` argument.

``` r
year_feature
```

    ## # A tibble: 147 × 4
    ## # Groups:   year_value [21]
    ##    year_value features                 n percentage
    ##         <dbl> <fct>                <dbl>      <dbl>
    ##  1       2000 animals                  4     0.182 
    ##  2       2000 celebrity                0     0     
    ##  3       2000 danger                   4     0.182 
    ##  4       2000 funny                    8     0.364 
    ##  5       2000 patriotic                0     0     
    ##  6       2000 show_product_quickly     5     0.227 
    ##  7       2000 use_sex                  1     0.0455
    ##  8       2001 animals                  3     0.0882
    ##  9       2001 celebrity                6     0.176 
    ## 10       2001 danger                   4     0.118 
    ## # … with 137 more rows
…
``` r
# wrangle data grouped by year
youtube2 <- youtube1 %>%
  drop_na(year, view_count, like_count, dislike_count) %>%
  group_by(year) %>%
  summarise(sum_view = sum(view_count), sum_like = sum(like_count), sum_dislike = sum(dislike_count))
youtube2
```

    ## # A tibble: 21 × 4
    ##     year sum_view sum_like sum_dislike
    ##    <dbl>    <dbl>    <dbl>       <dbl>
    ##  1  2000  3824187    25192         534
    ##  2  2001   384265     1097          35
    ##  3  2002   699127     7308         113
    ##  4  2003   604098      726          50
    ##  5  2004  2841652     6358         195
    ##  6  2005    83106      210           8
    ##  7  2006  1265841     2996         145
    ##  8  2007  4277269     5819        1278
    ##  9  2008  3812796     5493         496
    ## 10  2009  4009584     9674        1070
    ## # … with 11 more rows

``` r
# ratio: `like/view` and `dislike/view`
youtube3 <- youtube2 %>%
  mutate(
    like_view_rate = sum_like/sum_view, 
    dislike_view_rate = sum_dislike/sum_view
  )
youtube3
```

    ## # A tibble: 21 × 6
    ##     year sum_view sum_like sum_dislike like_view_rate dislike_view_rate
    ##    <dbl>    <dbl>    <dbl>       <dbl>          <dbl>             <dbl>
    ##  1  2000  3824187    25192         534        0.00659         0.000140 
    ##  2  2001   384265     1097          35        0.00285         0.0000911
    ##  3  2002   699127     7308         113        0.0105          0.000162 
    ##  4  2003   604098      726          50        0.00120         0.0000828
    ##  5  2004  2841652     6358         195        0.00224         0.0000686
    ##  6  2005    83106      210           8        0.00253         0.0000963
    ##  7  2006  1265841     2996         145        0.00237         0.000115 
    ##  8  2007  4277269     5819        1278        0.00136         0.000299 
    ##  9  2008  3812796     5493         496        0.00144         0.000130 
    ## 10  2009  4009584     9674        1070        0.00241         0.000267 
    ## # … with 11 more rows
…
